[
  {
    "outputFileName": "wwwroot/css/site.min.css",
    "inputFiles": [
      "wwwroot/lib/jquery-ui/jquery-ui.min.css",
      "wwwroot/lib/jquery-typeahead/jquery.typeahead.min.css",
      "wwwroot/lib/twitter-bootstrap/css/bootstrap.min.css",
      "wwwroot/lib/toastr/toastr.min.css",
      "wwwroot/lib/font-awesome/css/font-awesome.min.css",
      "wwwroot/lib/github-activity/css/github-activity.css",
      "wwwroot/lib/octicons/css/octicons.min.css",
      "wwwroot/lib/bootstrap-treeview/bootstrap-treeview.min.css",
      "wwwroot/Client/css/styles.css",
      "wwwroot/Client/css/custom.css",
      "wwwroot/Client/css/common.css",
      "wwwroot/Client/css/loading.css"
    ]
  },
  {
    "outputFileName": "wwwroot/js/site.min.js",
    "inputFiles": [
      "wwwroot/lib/jquery/jquery.min.js",
      "wwwroot/lib/jquery-ui/jquery-ui.min.js",
      "wwwroot/lib/jquery-validate/jquery.validate.min.js",
      "wwwroot/lib/jquery-validate/additional-methods.min.js",
      "wwwroot/lib/jquery-typeahead/jquery.typeahead.min.js",
      "wwwroot/lib/twitter-bootstrap/js/bootstrap.min.js",
      "wwwroot/lib/bootstrap-treeview/bootstrap-treeview.min.js",
      "wwwroot/lib/toastr/toastr.min.js",
      "wwwroot/Client/js/controllers/commonController.js"
    ],
    "minify": {
      "enabled": true,
      "renameLocals": true
    },
    "sourceMap": false
  }
]